COSC421KelownaProject
…
stops_per_route <- st_join(bus_stops_sf, bus_routes, join = st_intersects)

route_stop_counts <- stops_per_route %>%
  group_by(route_id) %>%
  summarise(stops = n()) %>%
  arrange(desc(stops))

print(route_stop_counts)

Simple feature collection with 29 features and 2 fields
Geometry type: GEOMETRY
Dimension:     XY
Bounding box:  xmin: -119.7902 ymin: 49.75194 xmax: -119.3472 ymax: 50.07352
Geodetic CRS:  WGS 84
# A tibble: 29 × 3
   route_id stops                                                       geometry
   <chr>    <int>                                               <MULTIPOINT [°]>
 1 11-KEL     194 ((-119.4787 49.87978), (-119.4759 49.88026), (-119.4752 49.88…
 2 23-KEL     163 ((-119.3689 49.95112), (-119.3687 49.95113), (-119.3641 49.93…
 3 8-KEL      149 ((-119.4799 49.86105), (-119.4849 49.86093), (-119.4888 49.86…
 4 10-KEL     134 ((-119.4529 49.88415), (-119.4535 49.88407), (-119.4503 49.88…
 5 14-KEL     108 ((-119.4416 49.8771), (-119.4309 49.87814), (-119.4276 49.879…
 6 22-KEL      85 ((-119.7835 49.7521), (-119.7835 49.752), (-119.7902 49.75315…
 7 97-KEL      73 ((-119.459 49.88182), (-119.4581 49.88204), (-119.4422 49.881…
 8 12-KEL      64 ((-119.4903 49.85815), (-119.4812 49.86095), (-119.4799 49.86…
 9 20-KEL      64 ((-119.5794 49.83474), (-119.5793 49.835), (-119.5736 49.8401…
10 6-KEL       52 ((-119.3943 49.93948), (-119.3949 49.93929), (-119.4309 49.94…
# ℹ 19 more rows
…
